^D:\TEMP\PROJECTS\DIRECT3D SHADOW WIN32 SAMPLES\C++\DXUT\OPTIONAL\DXUTRES.CPP
D:\TEMP\PROJECTS\DIRECT3D SHADOW WIN32 SAMPLES\C++\DXUT\OPTIONAL\BIN\DESKTOP_2012\WIN32\DEBUG\DXUTOPT.PCH
D:\TEMP\PROJECTS\DIRECT3D SHADOW WIN32 SAMPLES\C++\DXUT\OPTIONAL\BIN\DESKTOP_2012\WIN32\DEBUG\DXUTOPT.PDB
D:\TEMP\PROJECTS\DIRECT3D SHADOW WIN32 SAMPLES\C++\DXUT\OPTIONAL\BIN\DESKTOP_2012\WIN32\DEBUG\DXUTOPT.IDB
D:\TEMP\PROJECTS\DIRECT3D SHADOW WIN32 SAMPLES\C++\DXUT\OPTIONAL\BIN\DESKTOP_2012\WIN32\DEBUG\DXUTRES.OBJ
^D:\TEMP\PROJECTS\DIRECT3D SHADOW WIN32 SAMPLES\C++\DXUT\OPTIONAL\DXUTCAMERA.CPP|D:\TEMP\PROJECTS\DIRECT3D SHADOW WIN32 SAMPLES\C++\DXUT\OPTIONAL\DXUTGUI.CPP|D:\TEMP\PROJECTS\DIRECT3D SHADOW WIN32 SAMPLES\C++\DXUT\OPTIONAL\DXUTGUIIME.CPP|D:\TEMP\PROJECTS\DIRECT3D SHADOW WIN32 SAMPLES\C++\DXUT\OPTIONAL\DXUTSETTINGSDLG.CPP|D:\TEMP\PROJECTS\DIRECT3D SHADOW WIN32 SAMPLES\C++\DXUT\OPTIONAL\IMEUI.CPP|D:\TEMP\PROJECTS\DIRECT3D SHADOW WIN32 SAMPLES\C++\DXUT\OPTIONAL\SDKMESH.CPP|D:\TEMP\PROJECTS\DIRECT3D SHADOW WIN32 SAMPLES\C++\DXUT\OPTIONAL\SDKMISC.CPP
D:\TEMP\PROJECTS\DIRECT3D SHADOW WIN32 SAMPLES\C++\DXUT\OPTIONAL\BIN\DESKTOP_2012\WIN32\DEBUG\DXUTOPT.PDB
D:\TEMP\PROJECTS\DIRECT3D SHADOW WIN32 SAMPLES\C++\DXUT\OPTIONAL\BIN\DESKTOP_2012\WIN32\DEBUG\DXUTOPT.IDB
D:\TEMP\PROJECTS\DIRECT3D SHADOW WIN32 SAMPLES\C++\DXUT\OPTIONAL\BIN\DESKTOP_2012\WIN32\DEBUG\SDKMISC.OBJ
D:\TEMP\PROJECTS\DIRECT3D SHADOW WIN32 SAMPLES\C++\DXUT\OPTIONAL\BIN\DESKTOP_2012\WIN32\DEBUG\SDKMESH.OBJ
D:\TEMP\PROJECTS\DIRECT3D SHADOW WIN32 SAMPLES\C++\DXUT\OPTIONAL\BIN\DESKTOP_2012\WIN32\DEBUG\IMEUI.OBJ
D:\TEMP\PROJECTS\DIRECT3D SHADOW WIN32 SAMPLES\C++\DXUT\OPTIONAL\BIN\DESKTOP_2012\WIN32\DEBUG\DXUTSETTINGSDLG.OBJ
D:\TEMP\PROJECTS\DIRECT3D SHADOW WIN32 SAMPLES\C++\DXUT\OPTIONAL\BIN\DESKTOP_2012\WIN32\DEBUG\DXUTGUIIME.OBJ
D:\TEMP\PROJECTS\DIRECT3D SHADOW WIN32 SAMPLES\C++\DXUT\OPTIONAL\BIN\DESKTOP_2012\WIN32\DEBUG\DXUTGUI.OBJ
D:\TEMP\PROJECTS\DIRECT3D SHADOW WIN32 SAMPLES\C++\DXUT\OPTIONAL\BIN\DESKTOP_2012\WIN32\DEBUG\DXUTCAMERA.OBJ
^D:\TEMP\PROJECTS\DIRECT3D SHADOW WIN32 SAMPLES\C++\DXUT\OPTIONAL\DXUTCAMERA.CPP
D:\TEMP\PROJECTS\DIRECT3D SHADOW WIN32 SAMPLES\C++\DXUT\OPTIONAL\BIN\DESKTOP_2012\WIN32\DEBUG\DXUTOPT.PDB
^D:\TEMP\PROJECTS\DIRECT3D SHADOW WIN32 SAMPLES\C++\DXUT\OPTIONAL\DXUTGUI.CPP
D:\TEMP\PROJECTS\DIRECT3D SHADOW WIN32 SAMPLES\C++\DXUT\OPTIONAL\BIN\DESKTOP_2012\WIN32\DEBUG\DXUTOPT.PDB
^D:\TEMP\PROJECTS\DIRECT3D SHADOW WIN32 SAMPLES\C++\DXUT\OPTIONAL\DXUTGUIIME.CPP
D:\TEMP\PROJECTS\DIRECT3D SHADOW WIN32 SAMPLES\C++\DXUT\OPTIONAL\BIN\DESKTOP_2012\WIN32\DEBUG\DXUTOPT.PDB
^D:\TEMP\PROJECTS\DIRECT3D SHADOW WIN32 SAMPLES\C++\DXUT\OPTIONAL\DXUTSETTINGSDLG.CPP
D:\TEMP\PROJECTS\DIRECT3D SHADOW WIN32 SAMPLES\C++\DXUT\OPTIONAL\BIN\DESKTOP_2012\WIN32\DEBUG\DXUTOPT.PDB
^D:\TEMP\PROJECTS\DIRECT3D SHADOW WIN32 SAMPLES\C++\DXUT\OPTIONAL\IMEUI.CPP
D:\TEMP\PROJECTS\DIRECT3D SHADOW WIN32 SAMPLES\C++\DXUT\OPTIONAL\BIN\DESKTOP_2012\WIN32\DEBUG\DXUTOPT.PDB
^D:\TEMP\PROJECTS\DIRECT3D SHADOW WIN32 SAMPLES\C++\DXUT\OPTIONAL\SDKMESH.CPP
D:\TEMP\PROJECTS\DIRECT3D SHADOW WIN32 SAMPLES\C++\DXUT\OPTIONAL\BIN\DESKTOP_2012\WIN32\DEBUG\DXUTOPT.PDB
^D:\TEMP\PROJECTS\DIRECT3D SHADOW WIN32 SAMPLES\C++\DXUT\OPTIONAL\SDKMISC.CPP
D:\TEMP\PROJECTS\DIRECT3D SHADOW WIN32 SAMPLES\C++\DXUT\OPTIONAL\BIN\DESKTOP_2012\WIN32\DEBUG\DXUTOPT.PDB
